{
    "1": [
        {
            "id": 70160,
            "overview": "Every year in the ruins of what was once North America, the nation of Panem forces each of its twelve districts to send a teenage boy and girl to compete in the Hunger Games.  Part twisted entertainment, part government intimidation tactic, the Hunger Games are a nationally televised event in which \u201cTributes\u201d must fight with one another until one survivor remains.  Pitted against highly-trained Tributes who have prepared for these Games their entire lives, Katniss is forced to rely upon her sharp instincts as well as the mentorship of drunken former victor Haymitch Abernathy.  If she\u2019s ever to return home to District 12, Katniss must make impossible choices in the arena that weigh survival against humanity and life against love. The world will be watching.",
            "poster_path": "https://image.tmdb.org/t/p/w220_and_h330_face/yXCbOiVDCxO71zI7cuwBRXdftq8.jpg",
            "release_date": "2012-03-12",
            "title": "The Hunger Games",
            "genre": "Science Fiction",
            "runtime": 142,
            "vote_average": 3,
            "actors": [
                "Jennifer Lawrence",
                "Josh Hutcherson",
                "Liam Hemsworth",
                "Woody Harrelson"
            ],
            "support": "digital",
            "director": "Nina Jacobson"
        },
        {
            "id": 695721,
            "overview": "64 years before he becomes the tyrannical president of Panem, Coriolanus Snow sees a chance for a change in fortunes when he mentors Lucy Gray Baird, the female tribute from District 12.",
            "poster_path": "https://image.tmdb.org/t/p/w220_and_h330_face/mBaXZ95R2OxueZhvQbcEWy2DqyO.jpg",
            "release_date": "2023-11-15",
            "title": "The Hunger Games: The Ballad of Songbirds & Snakes",
            "genre": "Drama",
            "runtime": 157,
            "vote_average": 3,
            "actors": [
                "Tom Blyth",
                "Rachel Zegler",
                "Peter Dinklage",
                "Jason Schwartzman"
            ],
            "support": "digital",
            "director": "Nina Jacobson"
        },
        {
            "id": 10810,
            "overview": "Rosario Tijeras has been abused by men all her life, initially by her stepfather. Years later, she works as a paid assassin, seducing men and killing them when they least expect it. She meets Emilio, a wealthy womanizer, and his best friend, Antonio, at a nightclub, and starts an affair with Emilio despite Antonio's growing feelings for her. But circumstances bring her closer to Antonio, until her past catches up with her in a devastating way.",
            "poster_path": "https://image.tmdb.org/t/p/w220_and_h330_face/d8CnXqN257vDOwZyIaA0IM6DcoU.jpg",
            "release_date": "2005-08-12",
            "title": "Rosario Tijeras",
            "genre": "Crime",
            "runtime": 126,
            "vote_average": 4,
            "actors": [
                "Flora Mart\u00ednez",
                "Alejandra Borrero",
                "Kristina Lilley"
            ],
            "support": "Blu-ray",
            "director": "Matthias Ehrenberg"
        },
        {
            "id": 2000000001,
            "overview": "on s'en fout",
            "poster_path": "https://upload.wikimedia.org/wikipedia/commons/thumb/f/f8/Question_mark_alternate.svg/1200px-Question_mark_alternate.svg.png",
            "release_date": "2024-01-01",
            "title": "my film",
            "genre": "Drama",
            "runtime": 150,
            "vote_average": 5,
            "actors": [
                "My Acteur"
            ],
            "support": "Blu-ray",
            "director": "Lo"
        },
        {
            "id": 2000000002,
            "overview": "on s'en fout tjs",
            "poster_path": "https://upload.wikimedia.org/wikipedia/commons/thumb/f/f8/Question_mark_alternate.svg/1200px-Question_mark_alternate.svg.png",
            "release_date": "2024-01-04",
            "title": "encore mon fil\u00f9m",
            "genre": "Drama",
            "runtime": 190,
            "vote_average": 5,
            "actors": [
                "Ugo"
            ],
            "support": "disque dur",
            "director": "Mon r\u00e9al"
        },
        {
            "id": 131631,
            "overview": "Katniss Everdeen reluctantly becomes the symbol of a mass rebellion against the autocratic Capitol.",
            "poster_path": "https://image.tmdb.org/t/p/w220_and_h330_face/4FAA18ZIja70d1Tu5hr5cj2q1sB.jpg",
            "release_date": "2014-11-19",
            "title": "The Hunger Games: Mockingjay - Part 1",
            "genre": "Science Fiction",
            "runtime": 123,
            "vote_average": 3,
            "actors": [
                "Jennifer Lawrence",
                "Josh Hutcherson",
                "Liam Hemsworth"
            ],
            "support": "cl\u00e9 usb",
            "director": "Nina Jacobson"
        }
    ],
    "2": [
        {
            "id": 70160,
            "overview": "Every year in the ruins of what was once North America, the nation of Panem forces each of its twelve districts to send a teenage boy and girl to compete in the Hunger Games.  Part twisted entertainment, part government intimidation tactic, the Hunger Games are a nationally televised event in which \u201cTributes\u201d must fight with one another until one survivor remains.  Pitted against highly-trained Tributes who have prepared for these Games their entire lives, Katniss is forced to rely upon her sharp instincts as well as the mentorship of drunken former victor Haymitch Abernathy.  If she\u2019s ever to return home to District 12, Katniss must make impossible choices in the arena that weigh survival against humanity and life against love. The world will be watching.",
            "poster_path": "https://image.tmdb.org/t/p/w220_and_h330_face/yXCbOiVDCxO71zI7cuwBRXdftq8.jpg",
            "release_date": "2012-03-12",
            "title": "The Hunger Games",
            "genre": "Science Fiction",
            "runtime": 142,
            "vote_average": 3,
            "actors": [
                "Jennifer Lawrence",
                "Josh Hutcherson",
                "Liam Hemsworth",
                "Woody Harrelson"
            ],
            "support": "digital",
            "director": "Nina Jacobson"
        },
        {
            "id": 695721,
            "overview": "64 years before he becomes the tyrannical president of Panem, Coriolanus Snow sees a chance for a change in fortunes when he mentors Lucy Gray Baird, the female tribute from District 12.",
            "poster_path": "https://image.tmdb.org/t/p/w220_and_h330_face/mBaXZ95R2OxueZhvQbcEWy2DqyO.jpg",
            "release_date": "2023-11-15",
            "title": "The Hunger Games: The Ballad of Songbirds & Snakes",
            "genre": "Drama",
            "runtime": 157,
            "vote_average": 3,
            "actors": [
                "Tom Blyth",
                "Rachel Zegler",
                "Peter Dinklage",
                "Jason Schwartzman"
            ],
            "support": "digital",
            "director": "Nina Jacobson"
        },
        {
            "id": 10810,
            "overview": "Rosario Tijeras has been abused by men all her life, initially by her stepfather. Years later, she works as a paid assassin, seducing men and killing them when they least expect it. She meets Emilio, a wealthy womanizer, and his best friend, Antonio, at a nightclub, and starts an affair with Emilio despite Antonio's growing feelings for her. But circumstances bring her closer to Antonio, until her past catches up with her in a devastating way.",
            "poster_path": "https://image.tmdb.org/t/p/w220_and_h330_face/d8CnXqN257vDOwZyIaA0IM6DcoU.jpg",
            "release_date": "2005-08-12",
            "title": "Rosario Tijeras",
            "genre": "Crime",
            "runtime": 126,
            "vote_average": 4,
            "actors": [
                "Flora Mart\u00ednez",
                "Alejandra Borrero",
                "Kristina Lilley"
            ],
            "support": "Blu-ray",
            "director": "Matthias Ehrenberg"
        },
        {
            "id": 2000000001,
            "overview": "on s'en fout",
            "poster_path": "https://upload.wikimedia.org/wikipedia/commons/thumb/f/f8/Question_mark_alternate.svg/1200px-Question_mark_alternate.svg.png",
            "release_date": "2024-01-01",
            "title": "my film",
            "genre": "Drama",
            "runtime": 150,
            "vote_average": 5,
            "actors": [
                "My Acteur"
            ],
            "support": "Blu-ray",
            "director": "Lo"
        },
        {
            "id": 2000000002,
            "overview": "on s'en fout tjs",
            "poster_path": "https://upload.wikimedia.org/wikipedia/commons/thumb/f/f8/Question_mark_alternate.svg/1200px-Question_mark_alternate.svg.png",
            "release_date": "2024-01-04",
            "title": "encore mon fil\u00f9m",
            "genre": "Drama",
            "runtime": 190,
            "vote_average": 5,
            "actors": [
                "Ugo"
            ],
            "support": "disque dur",
            "director": "Mon r\u00e9al"
        },
        {
            "id": 131631,
            "overview": "Katniss Everdeen reluctantly becomes the symbol of a mass rebellion against the autocratic Capitol.",
            "poster_path": "https://image.tmdb.org/t/p/w220_and_h330_face/4FAA18ZIja70d1Tu5hr5cj2q1sB.jpg",
            "release_date": "2014-11-19",
            "title": "The Hunger Games: Mockingjay - Part 1",
            "genre": "Science Fiction",
            "runtime": 123,
            "vote_average": 3,
            "actors": [
                "Jennifer Lawrence",
                "Josh Hutcherson",
                "Liam Hemsworth"
            ],
            "support": "cl\u00e9 usb",
            "director": "Nina Jacobson"
        }
    ],
    "3": [
        {
            "id": 70160,
            "overview": "Every year in the ruins of what was once North America, the nation of Panem forces each of its twelve districts to send a teenage boy and girl to compete in the Hunger Games.  Part twisted entertainment, part government intimidation tactic, the Hunger Games are a nationally televised event in which \u201cTributes\u201d must fight with one another until one survivor remains.  Pitted against highly-trained Tributes who have prepared for these Games their entire lives, Katniss is forced to rely upon her sharp instincts as well as the mentorship of drunken former victor Haymitch Abernathy.  If she\u2019s ever to return home to District 12, Katniss must make impossible choices in the arena that weigh survival against humanity and life against love. The world will be watching.",
            "poster_path": "https://image.tmdb.org/t/p/w220_and_h330_face/yXCbOiVDCxO71zI7cuwBRXdftq8.jpg",
            "release_date": "2012-03-12",
            "title": "The Hunger Games",
            "genre": "Science Fiction",
            "runtime": 142,
            "vote_average": 3,
            "actors": [
                "Jennifer Lawrence",
                "Josh Hutcherson",
                "Liam Hemsworth",
                "Woody Harrelson"
            ],
            "support": "digital",
            "director": "Nina Jacobson"
        },
        {
            "id": 695721,
            "overview": "64 years before he becomes the tyrannical president of Panem, Coriolanus Snow sees a chance for a change in fortunes when he mentors Lucy Gray Baird, the female tribute from District 12.",
            "poster_path": "https://image.tmdb.org/t/p/w220_and_h330_face/mBaXZ95R2OxueZhvQbcEWy2DqyO.jpg",
            "release_date": "2023-11-15",
            "title": "The Hunger Games: The Ballad of Songbirds & Snakes",
            "genre": "Drama",
            "runtime": 157,
            "vote_average": 3,
            "actors": [
                "Tom Blyth",
                "Rachel Zegler",
                "Peter Dinklage",
                "Jason Schwartzman"
            ],
            "support": "digital",
            "director": "Nina Jacobson"
        },
        {
            "id": 10810,
            "overview": "Rosario Tijeras has been abused by men all her life, initially by her stepfather. Years later, she works as a paid assassin, seducing men and killing them when they least expect it. She meets Emilio, a wealthy womanizer, and his best friend, Antonio, at a nightclub, and starts an affair with Emilio despite Antonio's growing feelings for her. But circumstances bring her closer to Antonio, until her past catches up with her in a devastating way.",
            "poster_path": "https://image.tmdb.org/t/p/w220_and_h330_face/d8CnXqN257vDOwZyIaA0IM6DcoU.jpg",
            "release_date": "2005-08-12",
            "title": "Rosario Tijeras",
            "genre": "Crime",
            "runtime": 126,
            "vote_average": 4,
            "actors": [
                "Flora Mart\u00ednez",
                "Alejandra Borrero",
                "Kristina Lilley"
            ],
            "support": "Blu-ray",
            "director": "Matthias Ehrenberg"
        },
        {
            "id": 2000000001,
            "overview": "on s'en fout",
            "poster_path": "https://upload.wikimedia.org/wikipedia/commons/thumb/f/f8/Question_mark_alternate.svg/1200px-Question_mark_alternate.svg.png",
            "release_date": "2024-01-01",
            "title": "my film",
            "genre": "Drama",
            "runtime": 150,
            "vote_average": 5,
            "actors": [
                "My Acteur"
            ],
            "support": "Blu-ray",
            "director": "Lo"
        },
        {
            "id": 2000000002,
            "overview": "on s'en fout tjs",
            "poster_path": "https://upload.wikimedia.org/wikipedia/commons/thumb/f/f8/Question_mark_alternate.svg/1200px-Question_mark_alternate.svg.png",
            "release_date": "2024-01-04",
            "title": "encore mon film",
            "genre": "Drama",
            "runtime": 190,
            "vote_average": 5,
            "actors": [
                "Ugo"
            ],
            "support": "disque dur",
            "director": "Mon r\u00e9al"
        },
        {
            "id": 131631,
            "overview": "Katniss Everdeen reluctantly becomes the symbol of a mass rebellion against the autocratic Capitol.",
            "poster_path": "https://image.tmdb.org/t/p/w220_and_h330_face/4FAA18ZIja70d1Tu5hr5cj2q1sB.jpg",
            "release_date": "2014-11-19",
            "title": "The Hunger Games: Mockingjay - Part 1",
            "genre": "Science Fiction",
            "runtime": 123,
            "vote_average": 3,
            "actors": [
                "Jennifer Lawrence",
                "Josh Hutcherson",
                "Liam Hemsworth"
            ],
            "support": "aucun",
            "director": "Nina Jacobson"
        }
    ]
}